Building DAG of jobs...
Using shell: /bin/bash
Provided cores: 4
Rules claiming more threads will be scaled down.
Job counts:
	count	jobs
	1	Connect_treefiles_ML_10
	1	Connect_treefiles_ML_15
	1	Connect_treefiles_ML_20
	1	IqTree_Analysis_ML_10
	1	IqTree_Analysis_ML_15
	1	IqTree_Analysis_ML_20
	1	IqTree_For_OriginalML_10
	1	IqTree_For_OriginalML_15
	1	IqTree_For_OriginalML_20
	1	IqTree_For_Randomize_ML_10
	1	IqTree_For_Randomize_ML_15
	1	IqTree_For_Randomize_ML_20
	1	Multiply_fasta2
	1	Multiply_fasta3
	14

[Thu Jan 21 13:44:33 2021]
rule IqTree_For_OriginalML_10:
    input: data/D01/output/sequence_Aligned.fasta, data/D01/output/Trees_Original/RAxML_bipartitions.MLTree
    output: data/D01/output/sequence_Aligned.fasta.treefile
    jobid: 13

[Thu Jan 21 13:44:33 2021]
rule Multiply_fasta2:
    input: data/D01/output/sequence_Aligned.fasta
    output: data/D01/output/sequence_Aligned2.fasta
    jobid: 3


[Thu Jan 21 13:44:33 2021]
rule Multiply_fasta3:
    input: data/D01/output/sequence_Aligned.fasta
    output: data/D01/output/sequence_Aligned3.fasta
    jobid: 5


[Thu Jan 21 13:44:33 2021]
rule IqTree_For_Randomize_ML_15:
    input: data/D01/output/sequence_Aligned_Rand_15.fasta, data/D01/output/Trees_15%/RAxML_bipartitions.MLTreeRand15
    output: data/D01/output/Iqtree_ML/15/sequence_Aligned_Rand_15.fasta.treefile
    jobid: 10

[Thu Jan 21 13:44:33 2021]
Finished job 3.
1 of 14 steps (7%) done
[Thu Jan 21 13:44:33 2021]
Finished job 5.
2 of 14 steps (14%) done

[Thu Jan 21 13:44:33 2021]
rule IqTree_For_Randomize_ML_10:
    input: data/D01/output/sequence_Aligned_Rand_10.fasta, data/D01/output/Trees_10%/RAxML_bipartitions.MLTreeRand10
    output: data/D01/output/Iqtree_ML/10/sequence_Aligned_Rand_10.fasta.treefile
    jobid: 14


[Thu Jan 21 13:44:33 2021]
rule IqTree_For_Randomize_ML_20:
    input: data/D01/output/sequence_Aligned_Rand_20.fasta, data/D01/output/Trees_20%/RAxML_bipartitions.MLTreeRand20
    output: data/D01/output/Iqtree_ML/20/sequence_Aligned_Rand_20.fasta.treefile
    jobid: 12

[Thu Jan 21 13:44:35 2021]
Finished job 13.
3 of 14 steps (21%) done

[Thu Jan 21 13:44:35 2021]
rule IqTree_For_OriginalML_15:
    input: data/D01/output/sequence_Aligned2.fasta, data/D01/output/Trees_15%/RAxML_bipartitions.MLTreeRand15
    output: data/D01/output/sequence_Aligned2.fasta.treefile
    jobid: 9

[Thu Jan 21 13:44:36 2021]
Finished job 9.
4 of 14 steps (29%) done

[Thu Jan 21 13:44:36 2021]
rule IqTree_For_OriginalML_20:
    input: data/D01/output/sequence_Aligned3.fasta, data/D01/output/Trees_20%/RAxML_bipartitions.MLTreeRand20
    output: data/D01/output/sequence_Aligned3.fasta.treefile
    jobid: 11

[Thu Jan 21 13:44:38 2021]
Finished job 11.
5 of 14 steps (36%) done
[Thu Jan 21 13:44:40 2021]
Finished job 14.
6 of 14 steps (43%) done

[Thu Jan 21 13:44:40 2021]
rule Connect_treefiles_ML_10:
    input: data/D01/output/sequence_Aligned.fasta.treefile, data/D01/output/Iqtree_ML/10/sequence_Aligned_Rand_10.fasta.treefile
    output: data/D01/output/Iqtree_ML/10/Iqtree_ML_10.treels
    jobid: 8

[Thu Jan 21 13:44:41 2021]
Finished job 8.
7 of 14 steps (50%) done

[Thu Jan 21 13:44:41 2021]
rule IqTree_Analysis_ML_10:
    input: data/D01/output/sequence_Aligned.fasta, data/D01/output/Iqtree_ML/10/Iqtree_ML_10.treels
    output: data/D01/output/Iqtree_ML/10/sequence_Aligned.fasta.treefile
    jobid: 2

[Thu Jan 21 13:44:41 2021]
Finished job 10.
8 of 14 steps (57%) done

[Thu Jan 21 13:44:41 2021]
rule Connect_treefiles_ML_15:
    input: data/D01/output/sequence_Aligned2.fasta.treefile, data/D01/output/Iqtree_ML/15/sequence_Aligned_Rand_15.fasta.treefile
    output: data/D01/output/Iqtree_ML/15/Iqtree_ML_15.treels
    jobid: 4

[Thu Jan 21 13:44:41 2021]
Finished job 2.
9 of 14 steps (64%) done
[Thu Jan 21 13:44:42 2021]
Finished job 4.
10 of 14 steps (71%) done

[Thu Jan 21 13:44:42 2021]
rule IqTree_Analysis_ML_15:
    input: data/D01/output/sequence_Aligned2.fasta, data/D01/output/Iqtree_ML/15/Iqtree_ML_15.treels
    output: data/D01/output/Iqtree_ML/15/sequence_Aligned2.fasta.treefile
    jobid: 0

[Thu Jan 21 13:44:42 2021]
Finished job 12.
11 of 14 steps (79%) done
Shutting down, this might take some time.
Exiting because a job execution failed. Look above for error message
Complete log: /home/daniel/Mockup/.snakemake/log/2021-01-21T134433.366285.snakemake.log
