Building DAG of jobs...
Using shell: /bin/bash
Provided cores: 4
Rules claiming more threads will be scaled down.
Job counts:
	count	jobs
	1	Mrbayes_to_Newick
	1

[Mon Jan 25 14:42:02 2021]
rule Mrbayes_to_Newick:
    input: data/D01/output/Trees_Original/BIrun.run1.t, data/D01/output/Trees_Original/BIrun.run2.t
    output: output.newick
    jobid: 0

Shutting down, this might take some time.
Exiting because a job execution failed. Look above for error message
Complete log: /home/daniel/Mockup/.snakemake/log/2021-01-25T144202.365768.snakemake.log
